wcet/exemplos/b_working/trace.vcd
$date
     Oct 15, 2013       18:52:11
$end

$version
              SystemC 2.3.0-ASI --- Jun  6 2013 12:44:51
$end

$timescale
     1 ps
$end

$scope module SystemC $end
$var wire    1  aaa  clk       $end
$var wire    1  aab  mem_clk       $end
$var wire    1  aac  reset       $end
$var wire    1  aad  stall_mem       $end
$var wire    1  aae  stall_hzd       $end
$var wire    1  aaf  stall_cac       $end
$var wire    1  aag  pc_ld       $end
$var wire   32  aah  pc [31:0]  $end
$var wire   32  aai  F [31:0]  $end
$var wire   32  aaj  D [31:0]  $end
$var wire   32  aak  E [31:0]  $end
$var wire   32  aal  M [31:0]  $end
$var wire   32  aam  W [31:0]  $end
$var wire   32  aan  um_data [31:0]  $end
$var wire   32  aao  j_targ [31:0]  $end
$var wire   32  aap  alu_a [31:0]  $end
$var wire   32  aaq  alu_b [31:0]  $end
$var wire    5  aar  shamt [4:0]  $end
$var wire   32  aas  alu_out [31:0]  $end
$var wire   32  aat  alu_lo [31:0]  $end
$var wire   32  aau  alu_hi [31:0]  $end
$var wire    6  aav  id_ex_alu_op [5:0]  $end
$var wire   32  aaw  alu_pa_value [31:0]  $end
$var wire   32  aax  id_ex_immed_sigext [31:0]  $end
$var wire   32  aay  id_ex_immed_zeroext [31:0]  $end
$var wire   32  aaz  mem_adder_result [31:0]  $end
$var wire   32  aba  ex_mem_mem_address [31:0]  $end
$var wire   32  abb  mem_addr [31:0]  $end
$var wire   32  abc  ram_data_f [31:0]  $end
$var wire   32  abd  f_alu_ra [31:0]  $end
$var wire    5  abe  mem_wb_dest_reg [4:0]  $end
$var wire    1  abf  id_ex_mem_adder_enable       $end
$var wire    1  abg  sp_w       $end
$var wire    1  abh  sp_rd       $end
$var wire   32  abi  sp_data [31:0]  $end
$var wire   32  abj  sp_data_in [31:0]  $end
$var wire   32  abk  counter [31:0]  $end
$var wire    1  abl  clk_pb       $end
$var wire    1  abm  clk_pa       $end
$var wire   32  abn  debug_state [31:0]  $end
$var wire   32  abo  fet_debug [31:0]  $end
$var wire    1  abp  fet_done       $end
$var wire    1  abq  ram_rd       $end
$var wire    1  abr  ram_wr       $end
$var wire   32  abs  ram_addr [31:0]  $end
$var wire   32  abt  ram_data [31:0]  $end
$var wire    1  abu  C_ctrl.reg_w_enable       $end
$var wire    2  aaabv  C_ctrl.reg_w_select [1:0]  $end
$var wire    1  abw  C_ctrl.hilo_w_enable       $end
$var wire    2  abx  C_ctrl.access_width [1:0]  $end
$var wire    1  aby  C_ctrl.memory_rd_enable       $end
$var wire    1  abz  C_ctrl.memory_w_enable       $end
$var wire    1  aca  C_ctrl.unsigned_load       $end
$var wire    1  acb  C_ctrl.rf_predic_w_enable       $end
$var wire    1  acc  C_ctrl.halt       $end
$var wire    1  acd  C_ctrl.hazard       $end
$var wire    1  ace  C_ctrl.pmov       $end
$var wire    1  acf  X_ctrl.reg_w_enable       $end
$var wire    2  aaacg  X_ctrl.reg_w_select [1:0]  $end
$var wire    1  ach  X_ctrl.hilo_w_enable       $end
$var wire    2  aci  X_ctrl.access_width [1:0]  $end
$var wire    1  acj  X_ctrl.memory_rd_enable       $end
$var wire    1  ack  X_ctrl.memory_w_enable       $end
$var wire    1  acl  X_ctrl.unsigned_load       $end
$var wire    1  acm  X_ctrl.rf_predic_w_enable       $end
$var wire    1  acn  X_ctrl.halt       $end
$var wire    1  aco  X_ctrl.hazard       $end
$var wire    1  acp  X_ctrl.pmov       $end
$var wire    1  acq  M_d_reg.reg_w_enable       $end
$var wire    2  aaacr  M_d_reg.reg_w_select [1:0]  $end
$var wire    1  acs  M_d_reg.hilo_w_enable       $end
$var wire    2  act  M_d_reg.access_width [1:0]  $end
$var wire    1  acu  M_d_reg.memory_rd_enable       $end
$var wire    1  acv  M_d_reg.memory_w_enable       $end
$var wire    1  acw  M_d_reg.unsigned_load       $end
$var wire    1  acx  M_d_reg.rf_predic_w_enable       $end
$var wire    1  acy  M_d_reg.halt       $end
$var wire    1  acz  M_d_reg.hazard       $end
$var wire    1  ada  M_d_reg.pmov       $end
$var wire    1  adb  WB_reg_X       $end
$var wire   32  adc  WB_data_R [31:0]  $end
$var wire   32  add  id_ex_rs_value [31:0]  $end
$var wire   32  ade  forward_hilo_data [31:0]  $end
$var wire   32  adf  mem_wb_lo [31:0]  $end
$var wire    1  adg  mem_wb_hilo_w       $end
$var wire   32  adh  hilo_rf_data [31:0]  $end
$var wire    2  adi  ctrl_hilo_addr [1:0]  $end
$var wire    1  adj  ctrl_hilo_rd_enable       $end
$var wire    1  adk  id_ex_ld       $end
$var wire    1  adl  id_ex_b       $end
$var wire    1  adm  ctrl_add_en       $end
$var wire   32  adn  fram_datain [31:0]  $end
$var wire    1  ado  pipe_rd       $end
$var wire   32  adp  pipe_data [31:0]  $end
$var wire    1  adq  cr_en       $end
$var wire    1  adr  cache_rd_enable       $end
$var wire   32  ads  cache_rd_addr [31:0]  $end
$var wire   32  adt  inst_mem_data_out [31:0]  $end
$var wire   64  adu  hi-lo [63:0]  $end
$var wire   32  adv  hi [31:0]  $end
$var wire   32  adw  lo [31:0]  $end
$var wire    1  adx  halt       $end
$var wire   32  ady  r31 [31:0]  $end
$var wire   32  adz  r30 [31:0]  $end
$var wire   32  aea  r29 [31:0]  $end
$var wire   32  aeb  r28 [31:0]  $end
$var wire   32  aec  r15 [31:0]  $end
$var wire   32  aed  r14 [31:0]  $end
$var wire   32  aee  r13 [31:0]  $end
$var wire   32  aef  r12 [31:0]  $end
$var wire   32  aeg  r11 [31:0]  $end
$var wire   32  aeh  r10 [31:0]  $end
$var wire   32  aei  r9 [31:0]  $end
$var wire   32  aej  r8 [31:0]  $end
$var wire   32  aek  r7 [31:0]  $end
$var wire   32  ael  r6 [31:0]  $end
$var wire   32  aem  r5 [31:0]  $end
$var wire   32  aen  r4 [31:0]  $end
$var wire   32  aeo  r3 [31:0]  $end
$var wire   32  aep  r2 [31:0]  $end
$var wire   32  aeq  r1 [31:0]  $end
$var wire   32  aer  r0 [31:0]  $end
$upscope $end
$enddefinitions  $end

$comment
All initial values are dumped below at time 0 sec = 0 timescale units.
$end

$dumpvars
1aaa
1aab
1aac
0aad
0aae
1aaf
0aag
b0 aah
b0 aai
b0 aaj
b0 aak
b0 aal
b0 aam
b0 aan
b0 aao
b0 aap
b0 aaq
b0 aar
b0 aas
b0 aat
b0 aau
b0 aav
b0 aaw
b0 aax
b0 aay
b0 aaz
b0 aba
b0 abb
b0 abc
b0 abd
b0 abe
0abf
0abg
0abh
b0 abi
b0 abj
b10 abk
1abl
1abm
b0 abn
b0 abo
0abp
0abq
0abr
b0 abs
b0 abt
0abu
bXX aaabv
0abw
b0 abx
0aby
0abz
0aca
0acb
0acc
0acd
0ace
0acf
bXX aaacg
0ach
b0 aci
0acj
0ack
0acl
0acm
0acn
0aco
0acp
0acq
bXX aaacr
0acs
b0 act
0acu
0acv
0acw
0acx
0acy
0acz
0ada
0adb
b0 adc
b0 add
b0 ade
b0 adf
xadg
b0 adh
b0 adi
0adj
1adk
0adl
0adm
b0 adn
0ado
b0 adp
0adq
1adr
b0 ads
b0 adt
b0 adu
b0 adv
b0 adw
0adx
b0 ady
b0 adz
b0 aea
b0 aeb
b0 aec
b0 aed
b0 aee
b0 aef
b0 aeg
b0 aeh
b0 aei
b0 aej
b0 aek
b0 ael
b0 aem
b0 aen
b0 aeo
b0 aep
b0 aeq
b0 aer
$end

#10000
0aaa

#20000
1aaa
0aab
0aac
1adq

#30000
0aaa

#40000
1aaa
1aab
0abm
0adg
1adl

#50000
0aaa

#60000
1aaa
0aab
0aaf
b100100000111010100111111111100 aai
1abm
0adq
0adr
b100100000111010100111111111100 adt

#70000
0aaa

#80000
1aaa
1aab
1aaf
b1 aah
b100100000111010100111111111100 aaj
1acd
0adl
1adq
1adr
b1 ads

#90000
0aaa

#100000
1aaa
0aab
b100100000111010100111111111100 aak
b100111111111100 aax
b100111111111100 aay
0abm
1aco
1adl

#110000
0aaa

#120000
1aaa
1aab
0aaf
b1100000000000000000000010000 aai
b100100000111010100111111111100 aal
1abm
1abu
b0 aaabv
0acd
1acz
0adq
0adr
b1100000000000000000000010000 adt

#130000
0aaa

#140000
1aaa
0aab
1aaf
b10 aah
b1100000000000000000000010000 aaj
b100100000111010100111111111100 aam
b100111111111100 aaq
b100111111111100 aas
b1 aav
0abu
bXX aaabv
1acd
1acf
b0 aaacg
0aco
0adl
1adq
1adr
b10 ads

#150000
0aaa

#160000
1aaa
1aab
b1100000000000000000000010000 aak
b0 aaq
b0 aav
b10000 aax
b10000 aay
0abm
0acf
bXX aaacg
1aco
1acq
b0 aaacr
0acz
1adl

#170000
0aaa

#180000
1aaa
0aab
0aaf
1aag
b0 aai
b1100000000000000000000010000 aal
b11101 abe
1abm
1abu
b0 aaabv
0acd
0acq
bXX aaacr
1acz
1adb
b100111111111100 adc
0adq
0adr
b0 adt

#190000
0aaa
b100111111111100 aea

#200000
1aaa
1aab
1aaf
0aag
b10000 aah
b0 aaj
b1100000000000000000000010000 aam
b1 aap
b10 aaq
b11 aas
b1 aav
b1 aaw
b0 abe
0abu
bXX aaabv
1acf
b0 aaacg
0aco
0adb
0adl
1adq
1adr
b10000 ads

#210000
0aaa

#220000
1aaa
0aab
b0 aak
b0 aap
b0 aaq
b0 aav
b0 aaw
b0 aax
b0 aay
0abm
0acf
bXX aaacg
1acq
b0 aaacr
0acz
1adl

#230000
0aaa

#240000
1aaa
1aab
0aaf
b100111101111011111111111101000 aai
b0 aal
b11111 abe
1abm
0acq
bXX aaacr
1adb
b11 adc
0adq
0adr
b100111101111011111111111101000 adt

#250000
0aaa
b11 ady

#260000
1aaa
0aab
1aaf
b10001 aah
b100111101111011111111111101000 aaj
b0 aam
b0 abe
1acd
0adb
0adl
1adq
1adr
b10001 ads

#270000
0aaa

#280000
1aaa
1aab
b100111101111011111111111101000 aak
b100111111111100 aap
b100111111111100 aaq
b100111111111100 aaw
b11111111111111111111111111101000 aax
b1111111111101000 aay
b100111111111100 abd
0abm
1aco
b100111111111100 add
1adl

#290000
0aaa

#300000
1aaa
0aab
0aaf
b10101111101111110000000000010100 aai
b100111101111011111111111101000 aal
1abm
1abu
b0 aaabv
0acd
1acz
b100111111111100 adn
0adq
0adr
b10101111101111110000000000010100 adt

#310000
0aaa

#320000
1aaa
1aab
1aaf
b10010 aah
b10101111101111110000000000010100 aaj
b100111101111011111111111101000 aam
b11111111111111111111111111101000 aaq
b100111111100100 aas
b1 aav
0abu
bXX aaabv
1acd
1acf
b0 aaacg
0aco
0adl
1adq
1adr
b10010 ads

#330000
0aaa

#340000
1aaa
0aab
b10101111101111110000000000010100 aak
b100111111100100 aap
b11 aaq
b0 aav
b100111111100100 aaw
b10100 aax
b10100 aay
b100111111100100 abd
0abm
0acf
bXX aaacg
1aco
1acq
b0 aaacr
0acz
1adl

#350000
0aaa

#360000
1aaa
1aab
0aaf
b10101111101000000000000000010000 aai
b10101111101111110000000000010100 aal
b11101 abe
1abm
1abz
0acd
0acq
bXX aaacr
1acz
1adb
b100111111100100 adc
1adm
b11 adn
0adq
0adr
b10101111101000000000000000010000 adt

#370000
0aaa
b100111111100100 aea

#380000
1aaa
0aab
1aaf
b10011 aah
b10101111101000000000000000010000 aaj
b10101111101111110000000000010100 aam
b100111111111000 aaz
b0 abe
1abf
0abz
1acd
1ack
0aco
0adb
b100111111100100 add
0adl
0adm
1adq
1adr
b10011 ads

#390000
0aaa

#400000
1aaa
1aab
b10101111101000000000000000010000 aak
b0 aaq
b10000 aax
b10000 aay
b100111111111000 aba
b1001111111110 abb
0abf
1abh
0abm
0ack
1aco
1acv
0acz
1adl

#410000
0aaa
1ado
b11 adp

#420000
1aaa
0aab
0aaf
b1100000000000000000000011111 aai
b10101111101000000000000000010000 aal
b0 abb
1abg
0abh
b11 abj
1abm
1abz
0acd
0acv
1acz
1adm
b0 adn
0ado
0adq
0adr
b1100000000000000000000011111 adt

#430000
0aaa

#440000
1aaa
1aab
1aaf
b10100 aah
b1100000000000000000000011111 aaj
b10101111101000000000000000010000 aam
b100111111110100 aaz
1abf
0abg
b0 abj
0abz
1acd
1ack
0aco
0adl
0adm
1adq
1adr
b10100 ads

#450000
0aaa

#460000
1aaa
0aab
b1100000000000000000000011111 aak
b0 aap
b0 aaw
b11111 aax
b11111 aay
b100111111110100 aba
b1001111111101 abb
b0 abd
0abf
1abh
0abm
0ack
1aco
1acv
0acz
b0 add
1adl

#470000
0aaa
1ado
b0 adp

#480000
1aaa
1aab
0aaf
1aag
b0 aai
b1100000000000000000000011111 aal
b0 abb
1abg
0abh
1abm
1abu
b0 aaabv
0acd
0acv
1acz
0ado
0adq
0adr
b0 adt

#490000
0aaa

#500000
1aaa
0aab
1aaf
0aag
b11111 aah
b0 aaj
b1100000000000000000000011111 aam
b1 aap
b10100 aaq
b10101 aas
b1 aav
b1 aaw
0abg
0abu
bXX aaabv
1acf
b0 aaacg
0aco
0adl
1adq
1adr
b11111 ads

#510000
0aaa

#520000
1aaa
1aab
b0 aak
b0 aap
b0 aaq
b0 aav
b0 aaw
b0 aax
b0 aay
0abm
0acf
bXX aaacg
1acq
b0 aaacr
0acz
1adl

#530000
0aaa

#540000
1aaa
0aab
0aaf
b111100000000010000000000000000 aai
b0 aal
b11111 abe
1abm
0acq
bXX aaacr
1adb
b10101 adc
0adq
0adr
b111100000000010000000000000000 adt

#550000
0aaa
b10101 ady

#560000
1aaa
1aab
1aaf
b100000 aah
b111100000000010000000000000000 aaj
b0 aam
b0 abe
1acd
0adb
0adl
1adq
1adr
b100000 ads

#570000
0aaa

#580000
1aaa
0aab
b111100000000010000000000000000 aak
b10000 aar
0abm
1aco
1adl

#590000
0aaa

#600000
1aaa
1aab
0aaf
b10101100001000000010000110100000 aai
b111100000000010000000000000000 aal
1abm
1abu
b0 aaabv
0acd
1acz
0adq
0adr
b10101100001000000010000110100000 adt

#610000
0aaa

#620000
1aaa
0aab
1aaf
b100001 aah
b10101100001000000010000110100000 aaj
b111100000000010000000000000000 aam
b0 aas
b10100 aav
0abu
bXX aaabv
1acd
1acf
b0 aaacg
0aco
0adl
1adq
1adr
b100001 ads

#630000
0aaa

#640000
1aaa
1aab
b10101100001000000010000110100000 aak
b0 aav
b10000110100000 aax
b10000110100000 aay
0abm
0acf
bXX aaacg
1aco
1acq
b0 aaacr
0acz
1adl

#650000
0aaa

#660000
1aaa
0aab
0aaf
b100100000001000000000000000000 aai
b10101100001000000010000110100000 aal
b1 abe
1abm
1abz
0acd
0acq
bXX aaacr
1acz
1adb
b0 adc
1adm
0adq
0adr
b100100000001000000000000000000 adt

#670000
0aaa

#680000
1aaa
1aab
1aaf
b100010 aah
b100100000001000000000000000000 aaj
b10101100001000000010000110100000 aam
b10000110100000 aaz
b0 abe
1abf
0abz
1acd
1ack
0aco
0adb
0adl
0adm
1adq
1adr
b100010 ads

#690000
0aaa

#700000
1aaa
0aab
1aad
b100100000001000000000000000000 aak
b0 aax
b0 aay
b10000110100000 aba
b100001101000 abb
0abf
0abm
0ack
1aco
1acv
0acz
0adk
1adl

#710000
0aaa
b1 abk
1ado

#720000
1aaa
1aab
0aaf
b11111000000000000000001000 aai
b0 abk
0abl
1abm
0adq
0adr
b11111000000000000000001000 adt

#730000
0aaa
b1 abk

#740000
1aaa
0aab
b0 abk
1abl
b1 abn
1abq
b100001101000 abs

#750000
0aaa
b1 abk

#760000
1aaa
1aab
b0 abk
0abl

#770000
0aaa
b1 abk

#780000
1aaa
0aab
b0 abk
1abl
b10 abn
1abr

#790000
0aaa
b1 abk

#800000
1aaa
1aab
b0 abk
0abl

#810000
0aaa
b1 abk

#820000
1aaa
0aab
0aad
b10 abk
1abl
b0 abn
0abq
0abr
1abu
b0 aaabv
0acd
1adk

#830000
0aaa

#840000
1aaa
1aab
1aaf
b100011 aah
b11111000000000000000001000 aaj
b100100000001000000000000000000 aal
b1 aav
b0 abb
1abg
0abu
bXX aaabv
1acd
1acf
b0 aaacg
0aco
0acv
1acz
0adl
0ado
1adq
1adr
b100011 ads

#850000
0aaa

#860000
1aaa
0aab
b11111000000000000000001000 aak
b100100000001000000000000000000 aam
b10101 aap
b0 aav
b10101 aaw
b1000 aax
b1000 aay
b10101 abd
0abg
0abm
0acf
bXX aaacg
1aco
1acq
b0 aaacr
0acz
b10101 add
1adl

#870000
0aaa

#880000
1aaa
1aab
0aaf
1aag
b0 aai
b11111000000000000000001000 aal
b100 abe
1abm
0acd
0acq
bXX aaacr
1acz
1adb
0adq
0adr
b0 adt

#890000
0aaa

#900000
1aaa
0aab
1aaf
0aag
b10101 aah
b0 aaj
b11111000000000000000001000 aam
b0 abe
0aco
0adb
0adl
1adq
1adr
b10101 ads

#910000
0aaa

#920000
1aaa
1aab
b0 aak
b0 aap
b0 aaw
b0 aax
b0 aay
b0 abd
0abm
0acz
b0 add
1adl

#930000
0aaa

#940000
1aaa
0aab
0aaf
b100100000000010010000000000000 aai
b0 aal
1abm
0adq
0adr
b100100000000010010000000000000 adt

#950000
0aaa

#960000
1aaa
1aab
1aaf
b10110 aah
b100100000000010010000000000000 aaj
b0 aam
1acd
0adl
1adq
1adr
b10110 ads

#970000
0aaa

#980000
1aaa
0aab
b100100000000010010000000000000 aak
b10000000000000 aax
b10000000000000 aay
0abm
1aco
1adl

#990000
0aaa

#1000000
1aaa
1aab
0aaf
b111100000000100000000000000000 aai
b100100000000010010000000000000 aal
1abm
1abu
b0 aaabv
0acd
1acz
0adq
0adr
b111100000000100000000000000000 adt

#1010000
0aaa

#1020000
1aaa
0aab
1aaf
b10111 aah
b111100000000100000000000000000 aaj
b100100000000010010000000000000 aam
b10000000000000 aaq
b10000000000000 aas
b1 aav
0abu
bXX aaabv
1acd
1acf
b0 aaacg
0aco
0adl
1adq
1adr
b10111 ads

#1030000
0aaa

#1040000
1aaa
1aab
b111100000000100000000000000000 aak
b0 aaq
b0 aav
b0 aax
b0 aay
0abm
0acf
bXX aaacg
1aco
1acq
b0 aaacr
0acz
1adl

#1050000
0aaa

#1060000
1aaa
0aab
0aaf
b10000010010000000100001 aai
b111100000000100000000000000000 aal
b1 abe
1abm
1abu
b0 aaabv
0acd
0acq
bXX aaacr
1acz
1adb
b10000000000000 adc
0adq
0adr
b10000010010000000100001 adt

#1070000
0aaa
b10000000000000 aeq

#1080000
1aaa
1aab
1aaf
b11000 aah
b10000010010000000100001 aaj
b111100000000100000000000000000 aam
b0 aas
b10100 aav
b0 abe
0abu
bXX aaabv
1acd
1acf
b0 aaacg
0aco
0adb
0adl
1adq
1adr
b11000 ads

#1090000
0aaa

#1100000
1aaa
0aab
b10000010010000000100001 aak
b10000000000000 aaq
b0 aav
b10000000100001 aax
b10000000100001 aay
0abm
0acf
bXX aaacg
1aco
1acq
b0 aaacr
0acz
1adl

#1110000
0aaa

#1120000
1aaa
1aab
0aaf
b1100000000000000000000100100 aai
b10000010010000000100001 aal
b10 abe
1abm
1abu
b0 aaabv
0acd
0acq
bXX aaacr
1acz
1adb
b0 adc
b10000000000000 adn
0adq
0adr
b1100000000000000000000100100 adt

#1130000
0aaa

#1140000
1aaa
0aab
1aaf
b11001 aah
b1100000000000000000000100100 aaj
b10000010010000000100001 aam
b10000000000000 aas
b1 aav
b0 abe
0abu
bXX aaabv
1acd
1acf
b0 aaacg
0aco
0adb
0adl
1adq
1adr
b11001 ads

#1150000
0aaa

#1160000
1aaa
1aab
b1100000000000000000000100100 aak
b0 aaq
b0 aav
b100100 aax
b100100 aay
0abm
0acf
bXX aaacg
1aco
1acq
b0 aaacr
0acz
1adl

#1170000
0aaa

#1180000
1aaa
0aab
0aaf
1aag
b0 aai
b1100000000000000000000100100 aal
b100 abe
1abm
1abu
b0 aaabv
0acd
0acq
bXX aaacr
1acz
1adb
b10000000000000 adc
b0 adn
0adq
0adr
b0 adt

#1190000
0aaa
b10000000000000 aen

#1200000
1aaa
1aab
1aaf
0aag
b100100 aah
b0 aaj
b1100000000000000000000100100 aam
b1 aap
b11001 aaq
b11010 aas
b1 aav
b1 aaw
b0 abe
0abu
bXX aaabv
1acf
b0 aaacg
0aco
0adb
0adl
1adq
1adr
b100100 ads

#1210000
0aaa

#1220000
1aaa
0aab
b0 aak
b0 aap
b0 aaq
b0 aav
b0 aaw
b0 aax
b0 aay
0abm
0acf
bXX aaacg
1acq
b0 aaacr
0acz
1adl

#1230000
0aaa

#1240000
1aaa
1aab
0aaf
b100111101111011111111111011000 aai
b0 aal
b11111 abe
1abm
0acq
bXX aaacr
1adb
b11010 adc
0adq
0adr
b100111101111011111111111011000 adt

#1250000
0aaa
b11010 ady

#1260000
1aaa
0aab
1aaf
b100101 aah
b100111101111011111111111011000 aaj
b0 aam
b0 abe
1acd
0adb
0adl
1adq
1adr
b100101 ads

#1270000
0aaa

#1280000
1aaa
1aab
b100111101111011111111111011000 aak
b100111111100100 aap
b100111111100100 aaq
b100111111100100 aaw
b11111111111111111111111111011000 aax
b1111111111011000 aay
b100111111100100 abd
0abm
1aco
b100111111100100 add
1adl

#1290000
0aaa

#1300000
1aaa
0aab
0aaf
b10101111101111110000000000100100 aai
b100111101111011111111111011000 aal
1abm
1abu
b0 aaabv
0acd
1acz
b100111111100100 adn
0adq
0adr
b10101111101111110000000000100100 adt

#1310000
0aaa

#1320000
1aaa
1aab
1aaf
b100110 aah
b10101111101111110000000000100100 aaj
b100111101111011111111111011000 aam
b11111111111111111111111111011000 aaq
b100111110111100 aas
b1 aav
0abu
bXX aaabv
1acd
1acf
b0 aaacg
0aco
0adl
1adq
1adr
b100110 ads

#1330000
0aaa

#1340000
1aaa
0aab
b10101111101111110000000000100100 aak
b100111110111100 aap
b11010 aaq
b0 aav
b100111110111100 aaw
b100100 aax
b100100 aay
b100111110111100 abd
0abm
0acf
bXX aaacg
1aco
1acq
b0 aaacr
0acz
1adl

#1350000
0aaa

#1360000
1aaa
1aab
0aaf
b10101111101001000000000000100000 aai
b10101111101111110000000000100100 aal
b11101 abe
1abm
1abz
0acd
0acq
bXX aaacr
1acz
1adb
b100111110111100 adc
1adm
b11010 adn
0adq
0adr
b10101111101001000000000000100000 adt

#1370000
0aaa
b100111110111100 aea

#1380000
1aaa
0aab
1aaf
b100111 aah
b10101111101001000000000000100000 aaj
b10101111101111110000000000100100 aam
b100111111100000 aaz
b0 abe
1abf
0abz
1acd
1ack
0aco
0adb
b100111110111100 add
0adl
0adm
1adq
1adr
b100111 ads

#1390000
0aaa

#1400000
1aaa
1aab
b10101111101001000000000000100000 aak
b10000000000000 aaq
b100000 aax
b100000 aay
b100111111100000 aba
b1001111111000 abb
0abf
1abh
0abm
0ack
1aco
1acv
0acz
1adl

#1410000
0aaa
1ado
b11010 adp

#1420000
1aaa
0aab
0aaf
b1100000000000000000000110111 aai
b10101111101001000000000000100000 aal
b0 abb
1abg
0abh
b11010 abj
1abm
1abz
0acd
0acv
1acz
1adm
b10000000000000 adn
0ado
0adq
0adr
b1100000000000000000000110111 adt

#1430000
0aaa

#1440000
1aaa
1aab
1aaf
b101000 aah
b1100000000000000000000110111 aaj
b10101111101001000000000000100000 aam
b100111111011100 aaz
1abf
0abg
b0 abj
0abz
1acd
1ack
0aco
0adl
0adm
1adq
1adr
b101000 ads

#1450000
0aaa

#1460000
1aaa
0aab
b1100000000000000000000110111 aak
b0 aap
b0 aaq
b0 aaw
b110111 aax
b110111 aay
b100111111011100 aba
b1001111110111 abb
b0 abd
0abf
1abh
0abm
0ack
1aco
1acv
0acz
b0 add
1adl

#1470000
0aaa
1ado
b10000000000000 adp

#1480000
1aaa
1aab
0aaf
1aag
b0 aai
b1100000000000000000000110111 aal
b0 abb
1abg
0abh
b10000000000000 abj
1abm
1abu
b0 aaabv
0acd
0acv
1acz
b0 adn
0ado
0adq
0adr
b0 adt

#1490000
0aaa

#1500000
1aaa
0aab
1aaf
0aag
b110111 aah
b0 aaj
b1100000000000000000000110111 aam
b1 aap
b101000 aaq
b101001 aas
b1 aav
b1 aaw
0abg
b0 abj
0abu
bXX aaabv
1acf
b0 aaacg
0aco
0adl
1adq
1adr
b110111 ads

#1510000
0aaa

#1520000
1aaa
1aab
b0 aak
b0 aap
b0 aaq
b0 aav
b0 aaw
b0 aax
b0 aay
0abm
0acf
bXX aaacg
1acq
b0 aaacr
0acz
1adl

#1530000
0aaa

#1540000
1aaa
0aab
0aaf
b100111101111011111111111110000 aai
b0 aal
b11111 abe
1abm
0acq
bXX aaacr
1adb
b101001 adc
0adq
0adr
b100111101111011111111111110000 adt

#1550000
0aaa
b101001 ady

#1560000
1aaa
1aab
1aaf
b111000 aah
b100111101111011111111111110000 aaj
b0 aam
b0 abe
1acd
0adb
0adl
1adq
1adr
b111000 ads

#1570000
0aaa

#1580000
1aaa
0aab
b100111101111011111111111110000 aak
b100111110111100 aap
b100111110111100 aaq
b100111110111100 aaw
b11111111111111111111111111110000 aax
b1111111111110000 aay
b100111110111100 abd
0abm
1aco
b100111110111100 add
1adl

#1590000
0aaa

#1600000
1aaa
1aab
0aaf
b10101111101001000000000000001000 aai
b100111101111011111111111110000 aal
1abm
1abu
b0 aaabv
0acd
1acz
b100111110111100 adn
0adq
0adr
b10101111101001000000000000001000 adt

#1610000
0aaa

#1620000
1aaa
0aab
1aaf
b111001 aah
b10101111101001000000000000001000 aaj
b100111101111011111111111110000 aam
b11111111111111111111111111110000 aaq
b100111110101100 aas
b1 aav
0abu
bXX aaabv
1acd
1acf
b0 aaacg
0aco
0adl
1adq
1adr
b111001 ads

#1630000
0aaa

#1640000
1aaa
1aab
b10101111101001000000000000001000 aak
b100111110101100 aap
b10000000000000 aaq
b0 aav
b100111110101100 aaw
b1000 aax
b1000 aay
b100111110101100 abd
0abm
0acf
bXX aaacg
1aco
1acq
b0 aaacr
0acz
1adl

#1650000
0aaa

#1660000
1aaa
0aab
0aaf
b10101111101000000000000000000100 aai
b10101111101001000000000000001000 aal
b11101 abe
1abm
1abz
0acd
0acq
bXX aaacr
1acz
1adb
b100111110101100 adc
1adm
b10000000000000 adn
0adq
0adr
b10101111101000000000000000000100 adt

#1670000
0aaa
b100111110101100 aea

#1680000
1aaa
1aab
1aaf
b111010 aah
b10101111101000000000000000000100 aaj
b10101111101001000000000000001000 aam
b100111110110100 aaz
b0 abe
1abf
0abz
1acd
1ack
0aco
0adb
b100111110101100 add
0adl
0adm
1adq
1adr
b111010 ads

#1690000
0aaa

#1700000
1aaa
0aab
b10101111101000000000000000000100 aak
b0 aaq
b100 aax
b100 aay
b100111110110100 aba
b1001111101101 abb
0abf
1abh
0abm
0ack
1aco
1acv
0acz
1adl

#1710000
0aaa
1ado

#1720000
1aaa
1aab
0aaf
b100100000000100000000000101000 aai
b10101111101000000000000000000100 aal
b0 abb
1abg
0abh
b10000000000000 abj
1abm
1abz
0acd
0acv
1acz
1adm
b0 adn
0ado
0adq
0adr
b100100000000100000000000101000 adt

#1730000
0aaa

#1740000
1aaa
0aab
1aaf
b111011 aah
b100100000000100000000000101000 aaj
b10101111101000000000000000000100 aam
b100111110110000 aaz
1abf
0abg
b0 abj
0abz
1acd
1ack
0aco
0adl
0adm
1adq
1adr
b111011 ads

#1750000
0aaa

#1760000
1aaa
1aab
b100100000000100000000000101000 aak
b0 aap
b0 aaw
b101000 aax
b101000 aay
b100111110110000 aba
b1001111101100 abb
b0 abd
0abf
1abh
0abm
0ack
1aco
1acv
0acz
b0 add
1adl

#1770000
0aaa
1ado
b0 adp

#1780000
1aaa
0aab
0aaf
b100100000000110000000000000100 aai
b100100000000100000000000101000 aal
b0 abb
1abg
0abh
1abm
1abu
b0 aaabv
0acd
0acv
1acz
0ado
0adq
0adr
b100100000000110000000000000100 adt

#1790000
0aaa

#1800000
1aaa
1aab
1aaf
b111100 aah
b100100000000110000000000000100 aaj
b100100000000100000000000101000 aam
b101000 aaq
b101000 aas
b1 aav
0abg
0abu
bXX aaabv
1acd
1acf
b0 aaacg
0aco
0adl
1adq
1adr
b111100 ads

#1810000
0aaa

#1820000
1aaa
0aab
b100100000000110000000000000100 aak
b0 aaq
b0 aav
b100 aax
b100 aay
0abm
0acf
bXX aaacg
1aco
1acq
b0 aaacr
0acz
1adl

#1830000
0aaa

#1840000
1aaa
1aab
0aaf
b1000000000000000000001000001 aai
b100100000000110000000000000100 aal
b10 abe
1abm
1abu
b0 aaabv
0acd
0acq
bXX aaacr
1acz
1adb
b101000 adc
0adq
0adr
b1000000000000000000001000001 adt

#1850000
0aaa
b101000 aep

#1860000
1aaa
0aab
1aaf
b111101 aah
b1000000000000000000001000001 aaj
b100100000000110000000000000100 aam
b100 aaq
b100 aas
b1 aav
b0 abe
0abu
bXX aaabv
1acd
1acf
b0 aaacg
0aco
0adb
0adl
1adq
1adr
b111101 ads

#1870000
0aaa

#1880000
1aaa
1aab
b1000000000000000000001000001 aak
b0 aaq
b0 aav
b1000001 aax
b1000001 aay
0abm
0acf
bXX aaacg
1aco
1acq
b0 aaacr
0acz
1adl

#1890000
0aaa

#1900000
1aaa
0aab
0aaf
1aag
b0 aai
b1000000000000000000001000001 aal
b11 abe
1abm
0acd
0acq
bXX aaacr
1acz
1adb
b100 adc
0adq
0adr
b0 adt

#1910000
0aaa
b100 aeo

#1920000
1aaa
1aab
1aaf
0aag
b1000001 aah
b0 aaj
b1000000000000000000001000001 aam
b0 abe
0aco
0adb
0adl
1adq
1adr
b1000001 ads

#1930000
0aaa

#1940000
1aaa
0aab
b0 aak
b0 aax
b0 aay
0abm
0acz
1adl

#1950000
0aaa

#1960000
1aaa
1aab
0aaf
b10001111101000010000000000000100 aai
b0 aal
1abm
0adq
0adr
b10001111101000010000000000000100 adt

#1970000
0aaa

